<?xml version="1.0" encoding="utf-8"?>
<!-- Generator: Adobe Illustrator 16.0.0, SVG Export Plug-In . SVG Version: 6.00 Build 0)  -->
<!DOCTYPE svg PUBLIC "-//W3C//DTD SVG 1.1//EN" "http://www.w3.org/Graphics/SVG/1.1/DTD/svg11.dtd">
<svg version="1.1" id="Calque_1" xmlns="http://www.w3.org/2000/svg" xmlns:xlink="http://www.w3.org/1999/xlink" x="0px" y="0px"
	 width="20px" height="20px" viewBox="0 0 20 20" enable-background="new 0 0 20 20" xml:space="preserve">
<polygon fill-rule="evenodd" clip-rule="evenodd" fill="#B5B4B5" points="3.67,15.485 10,19.706 16.33,15.485 16.33,9.578 
	10,13.798 3.67,9.578 3.67,15.485 "/>
<polygon fill-rule="evenodd" clip-rule="evenodd" fill="#B5B4B5" points="16.33,9.578 16.33,4.514 10,0.294 3.67,4.514 3.67,9.578 
	8.565,9.578 8.565,6.624 11.435,6.624 11.435,9.578 16.33,9.578 "/>
</svg>
